CodeEditingAction 1639347457411 Game.java CHANGE Game.java CLASS
EditAction 1639347457602 Game.java 2753 8 8 0
TestFailureAction 1639347458493 GameTest.java FAIL
EditAction 1639347459356 Game.java 2753 8 8 0
CodeEditingAction 1639347639399 Game.java CHANGE Game.java CLASS
EditAction 1639347639531 Game.java 2876 8 8 0
EditAction 1639347640165 Game.java 2876 8 8 0
TestFailureAction 1639347640566 GameTest.java FAIL
CodeEditingAction 1639347657813 Game.java CHANGE Game.java CLASS
EditAction 1639347658014 Game.java 2782 8 8 0
EditAction 1639347658517 Game.java 2782 8 8 0
TestFailureAction 1639347658784 GameTest.java FAIL
EditAction 1639347716293 Game.java 2782 8 8 0
EditAction 1639347716298 Game.java 2782 8 8 0
EditAction 1639347716455 Game.java 2782 8 8 0
EditAction 1639347718033 Game.java 2782 8 8 0
EditAction 1639347718038 Game.java 2782 8 8 0
EditAction 1639347718143 Game.java 2782 8 8 0
EditAction 1639347718725 Game.java 2782 8 8 0
EditAction 1639347718730 Game.java 2782 8 8 0
EditAction 1639347719199 Game.java 2782 8 8 0
EditAction 1639347726945 Game.java 2782 8 8 0
EditAction 1639347726963 Game.java 2782 8 8 0
EditAction 1639347726971 Game.java 2782 8 8 0
EditAction 1639347726977 Game.java 2782 8 8 0
EditAction 1639347726983 Game.java 2782 8 8 0
EditAction 1639347726988 Game.java 2782 8 8 0
EditAction 1639347726994 Game.java 2782 8 8 0
EditAction 1639347726998 Game.java 2782 8 8 0
EditAction 1639347727002 Game.java 2782 8 8 0
EditAction 1639347727026 Game.java 2782 8 8 0
EditAction 1639347727031 Game.java 2782 8 8 0
EditAction 1639347727038 Game.java 2782 8 8 0
EditAction 1639347727145 Game.java 2782 8 8 0
EditAction 1639347747587 Game.java 2782 8 8 0
EditAction 1639347747592 Game.java 2782 8 8 0
EditAction 1639347747748 Game.java 2782 8 8 0
EditAction 1639347749315 Game.java 2782 8 8 0
EditAction 1639347749320 Game.java 2782 8 8 0
EditAction 1639347749435 Game.java 2782 8 8 0
EditAction 1639347759734 Game.java 2782 8 8 0
EditAction 1639347759742 Game.java 2782 8 8 0
EditAction 1639347759746 Game.java 2782 8 8 0
EditAction 1639347759751 Game.java 2782 8 8 0
EditAction 1639347759755 Game.java 2782 8 8 0
EditAction 1639347759760 Game.java 2782 8 8 0
EditAction 1639347759764 Game.java 2782 8 8 0
EditAction 1639347759770 Game.java 2782 8 8 0
EditAction 1639347759774 Game.java 2782 8 8 0
EditAction 1639347759779 Game.java 2782 8 8 0
EditAction 1639347759785 Game.java 2782 8 8 0
EditAction 1639347759790 Game.java 2782 8 8 0
EditAction 1639347759795 Game.java 2782 8 8 0
EditAction 1639347759798 Game.java 2782 8 8 0
EditAction 1639347759905 Game.java 2782 8 8 0
EditAction 1639347775563 Game.java 2782 8 8 0
EditAction 1639347775570 Game.java 2782 8 8 0
EditAction 1639347775574 Game.java 2782 8 8 0
EditAction 1639347775580 Game.java 2782 8 8 0
EditAction 1639347775585 Game.java 2782 8 8 0
EditAction 1639347775591 Game.java 2782 8 8 0
EditAction 1639347775596 Game.java 2782 8 8 0
EditAction 1639347775603 Game.java 2782 8 8 0
EditAction 1639347775608 Game.java 2782 8 8 0
EditAction 1639347775613 Game.java 2782 8 8 0
EditAction 1639347775616 Game.java 2782 8 8 0
EditAction 1639347775623 Game.java 2782 8 8 0
EditAction 1639347775627 Game.java 2782 8 8 0
EditAction 1639347775633 Game.java 2782 8 8 0
EditAction 1639347775770 Game.java 2782 8 8 0
EditAction 1639347801293 Game.java 2782 8 8 0
EditAction 1639347801297 Game.java 2782 8 8 0
EditAction 1639347801301 Game.java 2782 8 8 0
EditAction 1639347801306 Game.java 2782 8 8 0
EditAction 1639347801310 Game.java 2782 8 8 0
EditAction 1639347801314 Game.java 2782 8 8 0
EditAction 1639347801317 Game.java 2782 8 8 0
EditAction 1639347801322 Game.java 2782 8 8 0
EditAction 1639347801326 Game.java 2782 8 8 0
EditAction 1639347801333 Game.java 2782 8 8 0
EditAction 1639347801337 Game.java 2782 8 8 0
EditAction 1639347801342 Game.java 2782 8 8 0
EditAction 1639347801346 Game.java 2782 8 8 0
EditAction 1639347801350 Game.java 2782 8 8 0
EditAction 1639347801456 Game.java 2782 8 8 0
TestEditingAction 1639347802857 GameTest.java CHANGE GameTest.java CLASS CHANGE GameTest.java CLASS
EditAction 1639347802858 GameTest.java 4084 7 84 7
TestPassAction 1639347803628 GameTest.java OK
TestEditingAction 1639347938106 GameTest.java CHANGE GameTest.java CLASS CHANGE GameTest.java CLASS
EditAction 1639347938106 GameTest.java 4085 7 84 7
TestFailureAction 1639347939143 GameTest.java FAIL
TestEditingAction 1639347999904 GameTest.java CHANGE GameTest.java CLASS CHANGE GameTest.java CLASS
EditAction 1639347999904 GameTest.java 4085 7 84 7
TestPassAction 1639348000704 GameTest.java OK
TestCreationAction 1639348751781 GameTest.java ADD void testGameCalculateScoreWithMultipleStrikes()/2 METHOD ADD void testGameCalculateScoreWithMultipleStrikes()/2 METHOD
TestCreationAction 1639348775827 GameTest.java RENAME testGameCalculateScoreWithMultipleStrikes()/2=>void TESTPAZZOSGRAVAT() METHOD RENAME testGameCalculateScoreWithMultipleStrikes()/2=>void TESTPAZZOSGRAVAT() METHOD
